{
    "Instagram": "instagram\\.com/[\\w.-]+",
    "GitHub": "github\\.com/[\\w.-]+",
    "Twitter": "twitter\\.com/[\\w.-]+",
    "LinkedIn": "linkedin\\.com/in/[\\w.-]+",
    "Facebook": "facebook\\.com/[\\w.-]+",
    "Pinterest": "pinterest\\.com/[\\w.-]+",
    "Reddit": "reddit\\.com/user/[\\w.-]+",
    "Tumblr": "tumblr\\.com/blog/[\\w.-]+",
    "Snapchat": "snapchat\\.com/add/[\\w.-]+",
    "TikTok": "tiktok\\.com/@[\\w.-]+",
    "WhatsApp": "wa\\.me/[\\w.-]+",
    "Skype": "skype\\.com/[\\w.-]+",
    "Slack": "slack\\.com/[\\w.-]+",
    "Vimeo": "vimeo\\.com/[\\w.-]+",
    "YouTube": "youtube\\.com/user/[\\w.-]+",
    "Flickr": "flickr\\.com/photos/[\\w.-]+",
    "Dribbble": "dribbble\\.com/[\\w.-]+",
    "Behance": "behance\\.net/[\\w.-]+",
    "500px": "500px\\.com/[\\w.-]+",
    "DeviantArt": "deviantart\\.com/[\\w.-]+",
    "SoundCloud": "soundcloud\\.com/[\\w.-]+",
    "Spotify": "spotify\\.com/user/[\\w.-]+",
    "Last.fm": "last\\.fm/user/[\\w.-]+",
    "Goodreads": "goodreads\\.com/user/[\\w.-]+",
    "Foursquare": "foursquare\\.com/user/[\\w.-]+",
    "Meetup": "meetup\\.com/[\\w.-]+",
    "Quora": "quora\\.com/profile/[\\w.-]+",
    "Medium": "medium\\.com/[\\w.-]+",
    "WordPress": "wordpress\\.com/[\\w.-]+",
    "Blogger": "blogger\\.com/[\\w.-]+",
    "LiveJournal": "livejournal\\.com/[\\w.-]+",
    "Wix": "wixsite\\.com/[\\w.-]+",
    "Weebly": "weebly\\.com/[\\w.-]+",
    "Squarespace": "squarespace\\.com/[\\w.-]+",
    "Ghost": "ghost\\.org/[\\w.-]+",
    "Badoo": "badoo\\.com/[\\w.-]+",
    "Zoosk": "zoosk\\.com/[\\w.-]+",
    "OkCupid": "okcupid\\.com/profile/[\\w.-]+",
    "Plenty of Fish": "pof\\.com/[\\w.-]+",
    "Tinder": "tinder\\.com/[\\w.-]+",
    "Match.com": "match\\.com/profile/[\\w.-]+",
    "Eharmony": "eharmony\\.com/[\\w.-]+",
    "MeetMe": "meetme\\.com/[\\w.-]+",
    "Bumble": "bumble\\.com/[\\w.-]+",
    "Hinge": "hinge\\.co/[\\w.-]+",
    "Coffee Meets Bagel": "coffeemeetsbagel\\.com/[\\w.-]+",
    "Her": "weareher\\.com/[\\w.-]+",
    "Grindr": "grindr\\.com/[\\w.-]+",
    "Jack'd": "jackd\\.app/[\\w.-]+",
    "Hornet": "hornet\\.com/[\\w.-]+",
    "Scruff": "scruff\\.com/[\\w.-]+",
    "PlanetRomeo": "planetromeo\\.com/[\\w.-]+",
    "Gays.com": "gays\\.com/[\\w.-]+",
    "Ashley Madison": "ashleymadison\\.com/[\\w.-]+",
    "AdultFriendFinder": "adultfriendfinder\\.com/[\\w.-]+",
    "Xvideos": "xvideos\\.com/[\\w.-]+",
    "Pornhub": "pornhub\\.com/[\\w.-]+",
    "YouPorn": "youporn\\.com/[\\w.-]+",
    "RedTube": "redtube\\.com/[\\w.-]+",
    "Xhamster": "xhamster\\.com/[\\w.-]+",
    "Chaturbate": "chaturbate\\.com/[\\w.-]+",
    "CamSoda": "camsoda\\.com/[\\w.-]+",
    "MyFreeCams": "myfreecams\\.com/[\\w.-]+",
    "BongaCams": "bongacams\\.com/[\\w.-]+",
    "StripChat": "stripchat\\.com/[\\w.-]+",
    "ImLive": "imlive\\.com/[\\w.-]+",
    "Flirt4Free": "flirt4free\\.com/[\\w.-]+",
    "Cams.com": "cams\\.com/[\\w.-]+",
    "Jasmin": "jasmin\\.com/[\\w.-]+",
    "Camsoda": "camsoda\\.com/[\\w.-]+",
    "ImLive": "imlive\\.com/[\\w.-]+",
    "Flirt4Free": "flirt4free\\.com/[\\w.-]+",
    "Cams.com": "cams\\.com/[\\w.-]+",
    "Jasmin": "jasmin\\.com/[\\w.-]+",
    "LiveJasmin": "livejasmin\\.com/[\\w.-]+",
    "MyDirtyHobby": "mydirtyhobby\\.com/[\\w.-]+",
    "Cameraprive": "cameraprive\\.com/[\\w.-]+",
    "CamWithHer": "camwithher\\.com/[\\w.-]+",
    "iFriends": "ifriends\\.com/[\\w.-]+",
    "LiveSexAsian": "livesexasian\\.com/[\\w.-]+",
    "Hashnode": "hashnode\\.com/[\\w.-]+",
    "Product Hunt": "producthunt\\.com/[\\w.-]+",
    "AngelList": "angel\\.co/[\\w.-]+",
    "CodePen": "codepen\\.io/[\\w.-]+",
    "Docker": "hub.docker.com/[\\w.-]+",
    "GitLab": "gitlab\\.com/[\\w.-]+",
    "Bitbucket": "bitbucket\\.org/[\\w.-]+",
    "Stack Overflow": "stackoverflow\\.com/users/[\\w.-]+",
    "DZone": "dzone\\.com/users/[\\w.-]+",
    "HackerRank": "hackerrank\\.com/[\\w.-]+",
    "Kaggle": "kaggle\\.com/[\\w.-]+",
    "Codecademy": "codecademy\\.com/[\\w.-]+",
    "LeetCode": "leetcode\\.com/[\\w.-]+",
    "Behance": "behance\\.net/[\\w.-]+",
    "Product Hunt": "producthunt\\.com/[\\w.-]+",
    "AngelList": "angel\\.co/[\\w.-]+",
    "CodePen": "codepen\\.io/[\\w.-]+",
    "Docker": "hub.docker.com/[\\w.-]+",
    "GitLab": "gitlab\\.com/[\\w.-]+",
    "Bitbucket": "bitbucket\\.org/[\\w.-]+",
    "Stack Overflow": "stackoverflow\\.com/users/[\\w.-]+",
    "DZone": "dzone\\.com/users/[\\w.-]+",
    "HackerRank": "hackerrank\\.com/[\\w.-]+",
    "Kaggle": "kaggle\\.com/[\\w.-]+",
    "Codecademy": "codecademy\\.com/[\\w.-]+",
    "LeetCode": "leetcode\\.com/[\\w.-]+",
    "Hashnode": "hashnode\\.com/[\\w.-]+",
    "Medium": "medium\\.com/[\\w.-]+",
    "Dev.to": "dev\\.to/[\\w.-]+",
    "FreeCodeCamp": "freecodecamp\\.org/[\\w.-]+",
    "CodeNewbie": "codenewbie\\.org/[\\w.-]+",
    "Reddit": "reddit\\.com/user/[\\w.-]+",
    "Stack Overflow": "stackoverflow\\.com/users/[\\w.-]+",
    "Quora": "quora\\.com/profile/[\\w.-]+",
    "Discord": "discord\\.com/channels/[\\w.-]+",
    "Twitch": "twitch\\.tv/[\\w.-]+",
    "Steam": "steamcommunity\\.com/[\\w.-]+",
    "PlayStation Network": "my\\.playstation\\.com/profile/[\\w.-]+",
    "Xbox Live": "xbox\\.com/en-US/[\\w.-]+",
    "Nintendo Network": "nintendo\\.com/profile/[\\w.-]+",
    "Epic Games": "epicgames\\.com/[\\w.-]+",
    "Origin": "origin\\.com/[\\w.-]+",
    "Ubisoft Connect": "ubisoft\\.com/[\\w.-]+",
    "Battle.net": "battle\\.net/[\\w.-]+",
    "Rockstar Games": "socialclub\\.rockstargames\\.com/member/[\\w.-]+",
    "GOG.com": "gog\\.com/u/[\\w.-]+",
    "itch.io": "itch\\.io/[\\w.-]+",
    "Roblox": "roblox\\.com/users/[\\w.-]+",
    "Minecraft": "minecraft\\.net/[\\w.-]+",
    "PlayFab": "playfab\\.com/[\\w.-]+",
    "Unity": "connect\\.unity\\.com/[\\w.-]+",
    "Etsy": "etsy\\.com/[\\w.-]+",
    "Amazon Handmade": "amazon\\.com/handmade/[\\w.-]+",
    "Fiverr": "fiverr\\.com/[\\w.-]+",
    "Upwork": "upwork\\.com/[\\w.-]+",
    "Freelancer": "freelancer\\.com/[\\w.-]+",
    "Toptal": "toptal\\.com/[\\w.-]+",
    "Guru": "guru\\.com/[\\w.-]+",
    "PeoplePerHour": "peopleperhour\\.com/[\\w.-]+",
    "Behance": "behance\\.net/[\\w.-]+",
    "Dribbble": "dribbble\\.com/[\\w.-]+",
    "ArtStation": "artstation\\.com/[\\w.-]+",
    "Coroflot": "coroflot\\.com/[\\w.-]+",
    "Behance": "behance\\.net/[\\w.-]+",
    "Dribbble": "dribbble\\.com/[\\w.-]+",
    "ArtStation": "artstation\\.com/[\\w.-]+",
    "Coroflot": "coroflot\\.com/[\\w.-]+",
    "Pinterest": "pinterest\\.com/[\\w.-]+",
    "Foursquare": "foursquare\\.com/user/[\\w.-]+",
    "Meetup": "meetup\\.com/[\\w.-]+",
    "Quora": "quora\\.com/profile/[\\w.-]+",
    "Medium": "medium\\.com/[\\w.-]+",
    "WordPress": "wordpress\\.com/[\\w.-]+",
    "Blogger": "blogger\\.com/[\\w.-]+",
    "LiveJournal": "livejournal\\.com/[\\w.-]+",
    "Wix": "wixsite\\.com/[\\w.-]+",
    "Weebly": "weebly\\.com/[\\w.-]+",
    "Squarespace": "squarespace\\.com/[\\w.-]+",
    "Ghost": "ghost\\.org/[\\w.-]+",
    "Badoo": "badoo\\.com/[\\w.-]+",
    "Zoosk": "zoosk\\.com/[\\w.-]+",
    "OkCupid": "okcupid\\.com/profile/[\\w.-]+",
    "Plenty of Fish": "pof\\.com/[\\w.-]+",
    "Tinder": "tinder\\.com/[\\w.-]+",
    "Match.com": "match\\.com/profile/[\\w.-]+",
    "Eharmony": "eharmony\\.com/[\\w.-]+",
    "MeetMe": "meetme\\.com/[\\w.-]+",
    "Bumble": "bumble\\.com/[\\w.-]+",
    "Hinge": "hinge\\.co/[\\w.-]+",
    "Coffee Meets Bagel": "coffeemeetsbagel\\.com/[\\w.-]+",
    "Her": "weareher\\.com/[\\w.-]+",
    "Grindr": "grindr\\.com/[\\w.-]+",
    "Jack'd": "jackd\\.app/[\\w.-]+",
    "Hornet": "hornet\\.com/[\\w.-]+",
    "Scruff": "scruff\\.com/[\\w.-]+",
    "PlanetRomeo": "planetromeo\\.com/[\\w.-]+",
    "Gays.com": "gays\\.com/[\\w.-]+",
    "Ashley Madison": "ashleymadison\\.com/[\\w.-]+",
    "AdultFriendFinder": "adultfriendfinder\\.com/[\\w.-]+"
}


